{
  "/js/factura-ventas.js": "/js/factura-ventas.js",
  "/css/app.css": "/css/app.css",
  "/css/animate.css": "/css/animate.css",
  "/js/cotizacion.js": "/js/cotizacion.js",
  "/js/compras.js": "/js/compras.js",
  "/js/app-inventario.js": "/js/app-inventario.js",
  "/js/app-cuentas.js": "/js/app-cuentas.js"
}